{
	"cmake" : 
	{
		"generator" : 
		{
			"multiConfig" : false,
			"name" : "Ninja"
		},
		"paths" : 
		{
			"cmake" : "C:/Qt/Tools/CMake_64/bin/cmake.exe",
			"cpack" : "C:/Qt/Tools/CMake_64/bin/cpack.exe",
			"ctest" : "C:/Qt/Tools/CMake_64/bin/ctest.exe",
			"root" : "C:/Qt/Tools/CMake_64/share/cmake-3.19"
		},
		"version" : 
		{
			"isDirty" : false,
			"major" : 3,
			"minor" : 19,
			"patch" : 2,
			"string" : "3.19.2",
			"suffix" : ""
		}
	},
	"objects" : 
	[
		{
			"jsonFile" : "codemodel-v2-909e231fd115c8c84945.json",
			"kind" : "codemodel",
			"version" : 
			{
				"major" : 2,
				"minor" : 2
			}
		},
		{
			"jsonFile" : "cache-v2-21846c2d4d3ef2bcc974.json",
			"kind" : "cache",
			"version" : 
			{
				"major" : 2,
				"minor" : 0
			}
		},
		{
			"jsonFile" : "cmakeFiles-v1-a2d150d240be1c067f8c.json",
			"kind" : "cmakeFiles",
			"version" : 
			{
				"major" : 1,
				"minor" : 0
			}
		}
	],
	"reply" : 
	{
		"cache-v2" : 
		{
			"jsonFile" : "cache-v2-21846c2d4d3ef2bcc974.json",
			"kind" : "cache",
			"version" : 
			{
				"major" : 2,
				"minor" : 0
			}
		},
		"cmakeFiles-v1" : 
		{
			"jsonFile" : "cmakeFiles-v1-a2d150d240be1c067f8c.json",
			"kind" : "cmakeFiles",
			"version" : 
			{
				"major" : 1,
				"minor" : 0
			}
		},
		"codemodel-v2" : 
		{
			"jsonFile" : "codemodel-v2-909e231fd115c8c84945.json",
			"kind" : "codemodel",
			"version" : 
			{
				"major" : 2,
				"minor" : 2
			}
		}
	}
}
